#PPID#,#assetId#
ACH,1
ACH,2
ACH,3
ARC,1
ARC,2
ARC,3
ARC,4
ARC,5
BIG,1
BIG,2
BIG,3
BIG,4
CH,1
CH,2
CHF,1
CHF,2
CHF,3
CHF,4
CHF,5
CHF,6
CHF,7
CHF,8
CHF,9
CHF,10
CHF,11
CHF,12
CHF,13
CHF,14
CHF,15
CHF,16
CHF,17
CHF,18
CHF,19
CHF,20
CHF,21
CHF,22
CHF,23
CHF,24
CHF,25
CHF,26
CHF,27
CHF,28
CHF,29
CHF,30
CHF,31
CHF,32
CHF,33
CHF,34
CHF,35
CO,1
CO,2
CO,3
CO,4
CO,5
CO,6
CO,7
CO,8
CO,9
CO,10
CO,11
DGC,1
DGC,2
DGC,3
DGC,4
DGC,5
DGC,6
DGC,7
DGC,8
DGC,9
DGC,10
DO,1
DO,2
DO,3
DO,4
DO,5
DO,6
ESC,1
ESC,2
GA,1
GA,2
GA,3
GA,4
GA,5
GA,6
JAR,1
LEO,1
LEO,2
LEO,3
LEO,4
LEO,5
LEO,6
LEO,7
LOU,1
LOU,2
LOU,3
LOU,4
LOU,5
LOU,6
LOU,7
LOU,8
LOU,9
LOU,10
LOU,11
LOU,12
LOU,13
LOU,14
LSD,1
LSD,2
LSD,3
LSD,4
LSD,5
LSD,6
LSD,7
LSD,8
MD,1
MD,2
MD,3
MD,4
MER,1
MER,2
MER,3
MER,4
MLZ,1
MLZ,2
MLZ,3
MLZ,4
MLZ,5
MLZ,6
MQ,1
MQ,2
MQ,3
MQ,4
MQ,5
MQ,6
MQ,7
PCA,1
PCA,2
PCA,3
PCA,4
PCA,5
PCA,6
PCA,7
PCA,8
PCA,9
PIN,1
PIN,2
PIN,3
PIN,4
PIN,5
PLS,1
PLS,2
PLS,3
PLS,4
PLS,5
PLS,6
PLS,7
PLS,8
PLS,9
PLS,10
PSC,1
PSC,2
PSC,3
PVB,1
PVB,2
PVB,3
PVB,4
PVB,5
PVB,6
RBL,1
SAM,1
SAM,2
SAM,3
SAM,4
SAM,5
SDV,1
SDV,2
SDV,3
SDV,4
SDV,5
SDV,6
SDV,7
SDV,8
SME,1
SME,2
SME,3
TMU,1
TMU,2
TMU,3
TMU,4
TMU,5
TR,1
VG,1
VG,2
VG,3
VG,4